Configuration,Technique,Execution_Time



Baseline,DFS,54.23
Baseline,DFS,16.59
Baseline,DFS,28.82
Baseline,DFS,38.45
Baseline,DFS,60.99
Baseline,DFS,24.90
Baseline,DFS,42.22
Baseline,DFS,30.27
Baseline,DFS,16.68
Baseline,DFS,26.07


Types-1,DFS,13.27
Types-1,DFS,19.00
Types-1,DFS,13.09
Types-1,DFS,13.30
Types-1,DFS,6.62
Types-1,DFS,18.77
Types-1,DFS,7.59
Types-1,DFS,7.67
Types-1,DFS,16.10
Types-1,DFS,6.58


Types-5,DFS,6.60
Types-5,DFS,6.31
Types-5,DFS,6.97
Types-5,DFS,6.75
Types-5,DFS,16.98
Types-5,DFS,6.30
Types-5,DFS,6.64
Types-5,DFS,16.98
Types-5,DFS,7.20
Types-5,DFS,6.28


Actions-1,DFS,9.79
Actions-1,DFS,9.30
Actions-1,DFS,12.79
Actions-1,DFS,12.64
Actions-1,DFS,57.93
Actions-1,DFS,70.81
Actions-1,DFS,13.46
Actions-1,DFS,32.65
Actions-1,DFS,7.22
Actions-1,DFS,61.08


Actions-5,DFS,10.23
Actions-5,DFS,6.62
Actions-5,DFS,17.82
Actions-5,DFS,5.19
Actions-5,DFS,120.00
Actions-5,DFS,14.52
Actions-5,DFS,13.25
Actions-5,DFS,10.66
Actions-5,DFS,8.15
Actions-5,DFS,101.20


Widgets-1,DFS,6.92
Widgets-1,DFS,11.30
Widgets-1,DFS,6.83
Widgets-1,DFS,7.09
Widgets-1,DFS,6.66
Widgets-1,DFS,10.03
Widgets-1,DFS,10.20
Widgets-1,DFS,6.94
Widgets-1,DFS,6.77
Widgets-1,DFS,6.72


Widgets-5,DFS,6.89
Widgets-5,DFS,7.58
Widgets-5,DFS,6.92
Widgets-5,DFS,6.95
Widgets-5,DFS,8.48
Widgets-5,DFS,6.78
Widgets-5,DFS,6.88
Widgets-5,DFS,7.98
Widgets-5,DFS,6.73
Widgets-5,DFS,7.16










Baseline,RND,5.55
Baseline,RND,5.55
Baseline,RND,5.82
Baseline,RND,5.53
Baseline,RND,6.11
Baseline,RND,6.00
Baseline,RND,5.50
Baseline,RND,5.35
Baseline,RND,5.36
Baseline,RND,5.78


Types-1,RND,2.36
Types-1,RND,2.92
Types-1,RND,2.30
Types-1,RND,2.46
Types-1,RND,2.94
Types-1,RND,2.65
Types-1,RND,2.33
Types-1,RND,2.31
Types-1,RND,2.54
Types-1,RND,2.80


Types-5,RND,2.21
Types-5,RND,2.43
Types-5,RND,2.24
Types-5,RND,2.43
Types-5,RND,3.11
Types-5,RND,2.35
Types-5,RND,1.91
Types-5,RND,2.58
Types-5,RND,2.37
Types-5,RND,2.37


Actions-1,RND,2.04
Actions-1,RND,2.57
Actions-1,RND,2.23
Actions-1,RND,2.10
Actions-1,RND,3.07
Actions-1,RND,2.42
Actions-1,RND,2.07
Actions-1,RND,2.04
Actions-1,RND,2.23
Actions-1,RND,2.44


Actions-5,RND,2.08
Actions-5,RND,2.40
Actions-5,RND,2.36
Actions-5,RND,2.11
Actions-5,RND,3.04
Actions-5,RND,2.46
Actions-5,RND,2.16
Actions-5,RND,2.24
Actions-5,RND,2.03
Actions-5,RND,2.42


Widgets-1,RND,2.56
Widgets-1,RND,3.11
Widgets-1,RND,3.16
Widgets-1,RND,2.63
Widgets-1,RND,3.36
Widgets-1,RND,3.07
Widgets-1,RND,2.67
Widgets-1,RND,2.67
Widgets-1,RND,2.64
Widgets-1,RND,2.97


Widgets-5,RND,2.55
Widgets-5,RND,3.16
Widgets-5,RND,2.98
Widgets-5,RND,2.67
Widgets-5,RND,3.34
Widgets-5,RND,3.10
Widgets-5,RND,2.57
Widgets-5,RND,2.64
Widgets-5,RND,2.65
Widgets-5,RND,2.97










Baseline,QLEARN,5.45
Baseline,QLEARN,5.95
Baseline,QLEARN,5.84
Baseline,QLEARN,5.27
Baseline,QLEARN,5.51
Baseline,QLEARN,5.56
Baseline,QLEARN,5.51
Baseline,QLEARN,5.54
Baseline,QLEARN,5.30
Baseline,QLEARN,5.52


Types-1,QLEARN,2.39
Types-1,QLEARN,2.65
Types-1,QLEARN,3.14
Types-1,QLEARN,2.11
Types-1,QLEARN,2.38
Types-1,QLEARN,2.28
Types-1,QLEARN,2.21
Types-1,QLEARN,2.26
Types-1,QLEARN,2.35
Types-1,QLEARN,2.24


Types-5,QLEARN,2.31
Types-5,QLEARN,2.43
Types-5,QLEARN,2.53
Types-5,QLEARN,2.07
Types-5,QLEARN,1.90
Types-5,QLEARN,1.85
Types-5,QLEARN,2.68
Types-5,QLEARN,2.01
Types-5,QLEARN,2.02
Types-5,QLEARN,2.20


Actions-1,QLEARN,2.14
Actions-1,QLEARN,2.50
Actions-1,QLEARN,2.32
Actions-1,QLEARN,1.96
Actions-1,QLEARN,2.10
Actions-1,QLEARN,2.12
Actions-1,QLEARN,1.96
Actions-1,QLEARN,2.16
Actions-1,QLEARN,2.10
Actions-1,QLEARN,2.19


Actions-5,QLEARN,2.26
Actions-5,QLEARN,2.62
Actions-5,QLEARN,2.47
Actions-5,QLEARN,1.97
Actions-5,QLEARN,2.22
Actions-5,QLEARN,2.09
Actions-5,QLEARN,2.09
Actions-5,QLEARN,2.06
Actions-5,QLEARN,1.92
Actions-5,QLEARN,2.08


Widgets-1,QLEARN,2.64
Widgets-1,QLEARN,3.21
Widgets-1,QLEARN,3.17
Widgets-1,QLEARN,2.55
Widgets-1,QLEARN,2.85
Widgets-1,QLEARN,2.66
Widgets-1,QLEARN,2.53
Widgets-1,QLEARN,2.79
Widgets-1,QLEARN,2.53
Widgets-1,QLEARN,2.63


Widgets-5,QLEARN,2.62
Widgets-5,QLEARN,3.12
Widgets-5,QLEARN,3.06
Widgets-5,QLEARN,2.50
Widgets-5,QLEARN,2.58
Widgets-5,QLEARN,2.75
Widgets-5,QLEARN,2.70
Widgets-5,QLEARN,2.57
Widgets-5,QLEARN,2.52
Widgets-5,QLEARN,2.62